…
```r
any_na(surgery)
```

```
## [1] TRUE
```

```r
naniar::miss_var_summary(surgery)
```

```
## # A tibble: 25 × 3
##    variable          n_miss pct_miss
##    <chr>              <int>    <dbl>
##  1 bmi                 3290 10.3    
##  2 race                 480  1.50   
##  3 asa_status             8  0.0250 
##  4 gender                 3  0.00937
##  5 age                    2  0.00625
##  6 ahrq_ccs               0  0      
##  7 baseline_cancer        0  0      
##  8 baseline_cvd           0  0      
##  9 baseline_dementia      0  0      
## 10 baseline_diabetes      0  0      
## # … with 15 more rows
```
…
