…
```
## [1] "birds"         "lake fishes"   "lizards"       "mammals"      
## [5] "marine fishes" "river fishes"  "snakes"        "tortoises"    
## [9] "turtles"
```

```r
taxa <- select(homerange, "taxon", "common.name", "class", "order", "family", "genus", "species")
taxa
```

```
## # A tibble: 569 × 7
##    taxon         common.name             class        order family genus species
##    <fct>         <chr>                   <chr>        <fct> <chr>  <chr> <chr>  
##  1 lake fishes   american eel            actinoptery… angu… angui… angu… rostra…
##  2 river fishes  blacktail redhorse      actinoptery… cypr… catos… moxo… poecil…
##  3 river fishes  central stoneroller     actinoptery… cypr… cypri… camp… anomal…
##  4 river fishes  rosyside dace           actinoptery… cypr… cypri… clin… fundul…
##  5 river fishes  longnose dace           actinoptery… cypr… cypri… rhin… catara…
##  6 river fishes  muskellunge             actinoptery… esoc… esoci… esox  masqui…
##  7 marine fishes pollack                 actinoptery… gadi… gadid… poll… pollac…
##  8 marine fishes saithe                  actinoptery… gadi… gadid… poll… virens 
##  9 marine fishes lined surgeonfish       actinoptery… perc… acant… acan… lineat…
## 10 marine fishes orangespine unicornfish actinoptery… perc… acant… naso  litura…
## # … with 559 more rows
```
…
**7. Make two new data frames, one which is restricted to carnivores and another that is restricted to herbivores.**  

```r
carnivores <- filter(homerange, trophic.guild == "carnivore")
herbivores <- filter(homerange, trophic.guild == "herbivore")
```

```r
carnivores
```

```
## # A tibble: 342 × 24
##    taxon  commo…¹ class order family genus species prima…² N     mean.…³ log10…⁴
##    <fct>  <chr>   <chr> <fct> <chr>  <chr> <chr>   <chr>   <chr>   <dbl>   <dbl>
##  1 lake … americ… acti… angu… angui… angu… rostra… teleme… 16       887    2.95 
##  2 river… blackt… acti… cypr… catos… moxo… poecil… mark-r… <NA>     562    2.75 
##  3 river… centra… acti… cypr… cypri… camp… anomal… mark-r… 20        34    1.53 
##  4 river… rosysi… acti… cypr… cypri… clin… fundul… mark-r… 26         4    0.602
##  5 river… longno… acti… cypr… cypri… rhin… catara… mark-r… 17         4    0.602
##  6 river… muskel… acti… esoc… esoci… esox  masqui… teleme… 5       3525    3.55 
##  7 marin… pollack acti… gadi… gadid… poll… pollac… teleme… 2        737.   2.87 
##  8 marin… saithe  acti… gadi… gadid… poll… virens  teleme… 2        449.   2.65 
##  9 marin… giant … acti… perc… caran… cara… ignobi… teleme… 4        726.   2.86 
## 10 lake … rock b… acti… perc… centr… ambl… rupest… mark-r… 16       196    2.29 
## # … with 332 more rows, 13 more variables: alternative.mass.reference <chr>,
## #   mean.hra.m2 <dbl>, log10.hra <dbl>, hra.reference <chr>, realm <chr>,
## #   thermoregulation <chr>, locomotion <chr>, trophic.guild <chr>,
## #   dimension <dbl>, preymass <dbl>, log10.preymass <dbl>, PPMR <dbl>,
## #   prey.size.reference <chr>, and abbreviated variable names ¹​common.name,
## #   ²​primarymethod, ³​mean.mass.g, ⁴​log10.mass
```

```r
herbivores
```

```
## # A tibble: 227 × 24
##    taxon  commo…¹ class order family genus species prima…² N     mean.…³ log10…⁴
##    <fct>  <chr>   <chr> <fct> <chr>  <chr> <chr>   <chr>   <chr>   <dbl>   <dbl>
##  1 marin… lined … acti… perc… acant… acan… lineat… direct… <NA>   109.     2.04 
##  2 marin… orange… acti… perc… acant… naso  litura… teleme… 8      772.     2.89 
##  3 marin… bluesp… acti… perc… acant… naso  unicor… teleme… 7      152.     2.18 
##  4 marin… redlip… acti… perc… blenn… ophi… atlant… direct… 20       6.2    0.792
##  5 marin… bermud… acti… perc… kypho… kyph… sectat… teleme… 11    1087.     3.04 
##  6 marin… cherub… acti… perc… pomac… cent… argi    direct… <NA>     2.5    0.398
##  7 marin… damsel… acti… perc… pomac… chro… chromis direct… <NA>    28.4    1.45 
##  8 marin… twinsp… acti… perc… pomac… chry… biocel… direct… 18       9.19   0.963
##  9 marin… wards … acti… perc… pomac… poma… wardi   direct… <NA>    10.5    1.02 
## 10 marin… austra… acti… perc… pomac… steg… apical… direct… <NA>    45.3    1.66 
## # … with 217 more rows, 13 more variables: alternative.mass.reference <chr>,
## #   mean.hra.m2 <dbl>, log10.hra <dbl>, hra.reference <chr>, realm <chr>,
## #   thermoregulation <chr>, locomotion <chr>, trophic.guild <chr>,
## #   dimension <dbl>, preymass <dbl>, log10.preymass <dbl>, PPMR <dbl>,
## #   prey.size.reference <chr>, and abbreviated variable names ¹​common.name,
## #   ²​primarymethod, ³​mean.mass.g, ⁴​log10.mass
```
…
```r
# homerange %>% 
  # filter(taxon=="snakes")
```

```r
snakes_hra <- select(snakes, mean.hra.m2, common.name, class, order, family, genus, species)
snakes_hra
```

```
## # A tibble: 41 × 7
##    mean.hra.m2 common.name           class    order    family     genus  species
##          <dbl> <chr>                 <chr>    <fct>    <chr>      <chr>  <chr>  
##  1         700 western worm snake    reptilia squamata colubridae carph… vermis 
##  2         253 eastern worm snake    reptilia squamata colubridae carph… viridis
##  3      151000 racer                 reptilia squamata colubridae colub… constr…
##  4      114500 yellow bellied racer  reptilia squamata colubridae colub… constr…
##  5        6476 ringneck snake        reptilia squamata colubridae diado… puncta…
##  6     1853000 eastern indigo snake  reptilia squamata colubridae dryma… couperi
##  7      150600 great plains ratsnake reptilia squamata colubridae elaphe guttat…
##  8       46000 western ratsnake      reptilia squamata colubridae elaphe obsole…
##  9      516375 hognose snake         reptilia squamata colubridae heter… platir…
## 10      110900 European whipsnake    reptilia squamata colubridae hiero… viridi…
## # … with 31 more rows
```

```r
arrange(snakes_hra, mean.hra.m2)
```

```
## # A tibble: 41 × 7
##    mean.hra.m2 common.name          class    order    family     genus   species
##          <dbl> <chr>                <chr>    <fct>    <chr>      <chr>   <chr>  
##  1        200  namaqua dwarf adder  reptilia squamata viperidae  bitis   schnei…
##  2        253  eastern worm snake   reptilia squamata colubridae carpho… viridis
##  3        600  butlers garter snake reptilia squamata colubridae thamno… butleri
##  4        700  western worm snake   reptilia squamata colubridae carpho… vermis 
##  5       2400  snubnosed viper      reptilia squamata viperidae  vipera  latast…
##  6       2614. chinese pit viper    reptilia squamata viperidae  gloydi… shedao…
##  7       6476  ringneck snake       reptilia squamata colubridae diadop… puncta…
##  8      10655  cottonmouth          reptilia squamata viperidae  agkist… pisciv…
##  9      15400  redbacked ratsnake   reptilia squamata colubridae oocato… rufodo…
## 10      17400  gopher snake         reptilia squamata colubridae pituop… cateni…
## # … with 31 more rows
```

```r
snakes_hra
```

```
## # A tibble: 41 × 7
##    mean.hra.m2 common.name           class    order    family     genus  species
##          <dbl> <chr>                 <chr>    <fct>    <chr>      <chr>  <chr>  
##  1         700 western worm snake    reptilia squamata colubridae carph… vermis 
##  2         253 eastern worm snake    reptilia squamata colubridae carph… viridis
##  3      151000 racer                 reptilia squamata colubridae colub… constr…
##  4      114500 yellow bellied racer  reptilia squamata colubridae colub… constr…
##  5        6476 ringneck snake        reptilia squamata colubridae diado… puncta…
##  6     1853000 eastern indigo snake  reptilia squamata colubridae dryma… couperi
##  7      150600 great plains ratsnake reptilia squamata colubridae elaphe guttat…
##  8       46000 western ratsnake      reptilia squamata colubridae elaphe obsole…
##  9      516375 hognose snake         reptilia squamata colubridae heter… platir…
## 10      110900 European whipsnake    reptilia squamata colubridae hiero… viridi…
## # … with 31 more rows
```
…
