…
6. Which country had the largest overall catch in the year 2000?

```r
fisheries_new %>% 
  filter(year == 2000) %>% 
  group_by(country) %>% 
  summarize(overall_catch = sum(catch, na.rm=T)) %>% 
  arrange(desc(overall_catch))
```

```
## # A tibble: 193 × 2
##    country                  overall_catch
##    <fct>                            <dbl>
##  1 China                            25899
##  2 Russian Federation               12181
##  3 United States of America         11762
##  4 Japan                             8510
##  5 Indonesia                         8341
##  6 Peru                              7443
##  7 Chile                             6906
##  8 India                             6351
##  9 Thailand                          6243
## 10 Korea, Republic of                6124
## # … with 183 more rows
```

7. Which country caught the most sardines (_Sardina pilchardus_) between the years 1990-2000?

```r
fisheries_new %>% 
  filter(asfis_species_name == "Sardina pilchardus") %>% 
  filter(between(year, 1990, 2000)) %>% 
  group_by(country) %>% 
  summarize(total_catch = sum(catch, na.rm=T)) %>% 
  arrange(desc(total_catch))
```

```
## # A tibble: 37 × 2
##    country               total_catch
##    <fct>                       <dbl>
##  1 Morocco                      7470
##  2 Spain                        3507
##  3 Russian Federation           1639
##  4 Ukraine                      1030
##  5 France                        966
##  6 Portugal                      818
##  7 Greece                        528
##  8 Italy                         507
##  9 Serbia and Montenegro         478
## 10 Denmark                       477
## # … with 27 more rows
```
…
```r
fisheries_new %>% 
  filter(isscaap_taxonomic_group=="Squids, cuttlefishes, octopuses") %>% 
  filter(between(year, 2008, 2012)) %>% 
  group_by(country) %>% 
  summarize(total_cephalopods = sum(catch, na.rm=T)) %>% 
  arrange(desc(total_cephalopods))
```

```
## # A tibble: 122 × 2
##    country                  total_cephalopods
##    <fct>                                <dbl>
##  1 China                                 8349
##  2 Korea, Republic of                    3480
##  3 Peru                                  3422
##  4 Japan                                 3248
##  5 Chile                                 2775
##  6 United States of America              2417
##  7 Indonesia                             1622
##  8 Taiwan Province of China              1394
##  9 Spain                                 1147
## 10 France                                1138
## # … with 112 more rows
```

9. Which species had the highest catch total between 2008-2012? (hint: Osteichthyes is not a species)

```r
fisheries_new %>% 
  filter(between(year, 2008, 2012)) %>% 
  group_by(asfis_species_name) %>% 
  summarize(catch_total = sum(catch, na.rm=T)) %>% 
  arrange(desc(catch_total))
```

```
## # A tibble: 1,472 × 2
##    asfis_species_name    catch_total
##    <chr>                       <dbl>
##  1 Osteichthyes               107808
##  2 Theragra chalcogramma       41075
##  3 Engraulis ringens           35523
##  4 Katsuwonus pelamis          32153
##  5 Trichiurus lepturus         30400
##  6 Clupea harengus             28527
##  7 Thunnus albacares           20119
##  8 Scomber japonicus           14723
##  9 Gadus morhua                13253
## 10 Thunnus alalunga            12019
## # … with 1,462 more rows
```
…
```r
#which taxonomic group(s) have the fewest number of species?
fisheries_new %>% 
  select(isscaap_taxonomic_group, asfis_species_name) %>% 
  group_by(isscaap_taxonomic_group) %>% 
  summarize(n_species = n_distinct(asfis_species_name)) %>% 
  arrange(n_species)
```

```
## # A tibble: 30 × 2
##    isscaap_taxonomic_group              n_species
##    <fct>                                    <int>
##  1 Horseshoe crabs and other arachnoids         1
##  2 Marine fishes not identified                 1
##  3 Miscellaneous marine molluscs                1
##  4 Tilapias and other cichlids                  1
##  5 Miscellaneous aquatic invertebrates          4
##  6 Sturgeons, paddlefishes                      7
##  7 Miscellaneous diadromous fishes              8
##  8 Oysters                                      9
##  9 Miscellaneous marine crustaceans            10
## 10 Mussels                                     12
## # … with 20 more rows
```
…
