…
```r
deserts %>% 
  select(species, weight, hindfoot_length) %>% 
  filter(weight!="NA" & hindfoot_length!="NA") %>% 
  filter(species=="albigula" | species=="spectabilis") %>%
  mutate(weight_to_hindfoot_length = weight/hindfoot_length)
```

```
## # A tibble: 3,072 × 4
##    species     weight hindfoot_length weight_to_hindfoot_length
##    <chr>        <dbl>           <dbl>                     <dbl>
##  1 spectabilis    117              50                      2.34
##  2 spectabilis    121              51                      2.37
##  3 spectabilis    115              51                      2.25
##  4 spectabilis    120              48                      2.5 
##  5 spectabilis    118              48                      2.46
##  6 spectabilis    126              52                      2.42
##  7 spectabilis    132              50                      2.64
##  8 spectabilis    122              53                      2.30
##  9 spectabilis    107              48                      2.23
## 10 spectabilis    115              50                      2.3 
## # … with 3,062 more rows
```
…
